<mxfile host="app.diagrams.net" modified="2023-10-09T07:46:20.947Z" agent="Mozilla/5.0 (X11; Linux x86_64; rv:102.0) Gecko/20100101 Firefox/102.0" etag="1mMCOECWye6qGZ_8dMiH" version="22.0.4" type="device">
  <diagram name="Page-1" id="j_lTcGBE8XXbER5iXoFz">
    <mxGraphModel dx="973" dy="1651" grid="1" gridSize="10" guides="1" tooltips="1" connect="1" arrows="1" fold="1" page="1" pageScale="1" pageWidth="850" pageHeight="1100" math="0" shadow="0">
      <root>
        <mxCell id="0" />
        <mxCell id="1" parent="0" />
        <mxCell id="dZcu3BastDSxpuzZsqTu-38" value="" style="ellipse;whiteSpace=wrap;html=1;" vertex="1" parent="1">
          <mxGeometry x="220" y="240" width="425" height="260" as="geometry" />
        </mxCell>
        <mxCell id="dZcu3BastDSxpuzZsqTu-39" value="" style="ellipse;whiteSpace=wrap;html=1;" vertex="1" parent="1">
          <mxGeometry x="380" y="240" width="240" height="160" as="geometry" />
        </mxCell>
        <mxCell id="dZcu3BastDSxpuzZsqTu-1" value="" style="triangle;whiteSpace=wrap;html=1;" vertex="1" parent="1">
          <mxGeometry x="200" y="-90" width="60" height="80" as="geometry" />
        </mxCell>
        <mxCell id="dZcu3BastDSxpuzZsqTu-2" value="" style="endArrow=classic;html=1;rounded=0;" edge="1" parent="1">
          <mxGeometry width="50" height="50" relative="1" as="geometry">
            <mxPoint x="240" y="-20" as="sourcePoint" />
            <mxPoint x="240" y="80" as="targetPoint" />
          </mxGeometry>
        </mxCell>
        <mxCell id="dZcu3BastDSxpuzZsqTu-3" value="&lt;div&gt;Check ENV variable PLAYING=RECORD_ID&lt;/div&gt;" style="text;html=1;strokeColor=none;fillColor=none;align=center;verticalAlign=middle;whiteSpace=wrap;rounded=0;" vertex="1" parent="1">
          <mxGeometry x="105" y="90" width="320" height="40" as="geometry" />
        </mxCell>
        <mxCell id="dZcu3BastDSxpuzZsqTu-4" value="" style="endArrow=classic;html=1;rounded=0;" edge="1" parent="1">
          <mxGeometry width="50" height="50" relative="1" as="geometry">
            <mxPoint x="210" y="140" as="sourcePoint" />
            <mxPoint x="210" y="240" as="targetPoint" />
          </mxGeometry>
        </mxCell>
        <mxCell id="dZcu3BastDSxpuzZsqTu-5" value="&lt;div&gt;If playing&lt;/div&gt;&lt;div&gt;&lt;br&gt;&lt;/div&gt;&lt;div&gt;START LOOP&lt;br&gt;&lt;/div&gt;" style="text;html=1;strokeColor=none;fillColor=none;align=center;verticalAlign=middle;whiteSpace=wrap;rounded=0;" vertex="1" parent="1">
          <mxGeometry x="80" y="220" width="120" as="geometry" />
        </mxCell>
        <mxCell id="dZcu3BastDSxpuzZsqTu-6" value="Schedule Anyone Online?" style="text;html=1;strokeColor=none;fillColor=none;align=center;verticalAlign=middle;whiteSpace=wrap;rounded=0;" vertex="1" parent="1">
          <mxGeometry x="140" y="250" width="160" height="30" as="geometry" />
        </mxCell>
        <mxCell id="dZcu3BastDSxpuzZsqTu-7" value="" style="endArrow=classic;html=1;rounded=0;" edge="1" parent="1">
          <mxGeometry width="50" height="50" relative="1" as="geometry">
            <mxPoint x="260" y="300" as="sourcePoint" />
            <mxPoint x="310" y="370" as="targetPoint" />
          </mxGeometry>
        </mxCell>
        <mxCell id="dZcu3BastDSxpuzZsqTu-8" value="" style="endArrow=classic;html=1;rounded=0;" edge="1" parent="1">
          <mxGeometry width="50" height="50" relative="1" as="geometry">
            <mxPoint x="170" y="290" as="sourcePoint" />
            <mxPoint x="120" y="370" as="targetPoint" />
          </mxGeometry>
        </mxCell>
        <mxCell id="dZcu3BastDSxpuzZsqTu-9" value="&lt;div&gt;Nope: &lt;br&gt;&lt;/div&gt;&lt;div&gt;Schedule Anyone Online?&lt;/div&gt;" style="text;strokeColor=none;fillColor=none;align=left;verticalAlign=middle;spacingLeft=4;spacingRight=4;overflow=hidden;points=[[0,0.5],[1,0.5]];portConstraint=eastwest;rotatable=0;whiteSpace=wrap;html=1;" vertex="1" parent="1">
          <mxGeometry x="25" y="360" width="230" height="40" as="geometry" />
        </mxCell>
        <mxCell id="dZcu3BastDSxpuzZsqTu-10" value="" style="endArrow=classic;html=1;rounded=0;entryX=0.063;entryY=1.333;entryDx=0;entryDy=0;entryPerimeter=0;exitX=0.328;exitY=-0.142;exitDx=0;exitDy=0;exitPerimeter=0;" edge="1" parent="1" source="dZcu3BastDSxpuzZsqTu-9" target="dZcu3BastDSxpuzZsqTu-6">
          <mxGeometry width="50" height="50" relative="1" as="geometry">
            <mxPoint x="100" y="350" as="sourcePoint" />
            <mxPoint x="410" y="360" as="targetPoint" />
          </mxGeometry>
        </mxCell>
        <mxCell id="dZcu3BastDSxpuzZsqTu-11" value="INITIAL STATE&lt;br&gt;&lt;br&gt;Wait for all online...timeout&lt;br&gt;Wait for all initial_state...timeout" style="text;strokeColor=none;fillColor=none;align=left;verticalAlign=middle;spacingLeft=4;spacingRight=4;overflow=hidden;points=[[0,0.5],[1,0.5]];portConstraint=eastwest;rotatable=0;whiteSpace=wrap;html=1;" vertex="1" parent="1">
          <mxGeometry x="240" y="380" width="230" height="80" as="geometry" />
        </mxCell>
        <mxCell id="dZcu3BastDSxpuzZsqTu-12" value="" style="endArrow=classic;html=1;rounded=0;entryX=0.051;entryY=0.748;entryDx=0;entryDy=0;entryPerimeter=0;" edge="1" parent="1" source="dZcu3BastDSxpuzZsqTu-11" target="dZcu3BastDSxpuzZsqTu-39">
          <mxGeometry width="50" height="50" relative="1" as="geometry">
            <mxPoint x="360" y="370" as="sourcePoint" />
            <mxPoint x="410" y="310" as="targetPoint" />
          </mxGeometry>
        </mxCell>
        <mxCell id="dZcu3BastDSxpuzZsqTu-13" value="Play Recordings&lt;br&gt;&lt;br&gt;&lt;div&gt;How to handle Offline Devices?&lt;/div&gt;&lt;div&gt;How to handle Errornous devices?&lt;/div&gt;&lt;div&gt;&lt;br&gt;&lt;/div&gt;&lt;div&gt;Either Schedule AnyoneOnline&lt;br&gt;OR Socket Push FREESYLE&lt;br&gt;&lt;/div&gt;" style="text;html=1;strokeColor=none;fillColor=none;align=left;verticalAlign=middle;whiteSpace=wrap;rounded=0;" vertex="1" parent="1">
          <mxGeometry x="425" y="260" width="245" height="80" as="geometry" />
        </mxCell>
        <mxCell id="dZcu3BastDSxpuzZsqTu-14" value="" style="endArrow=classic;html=1;rounded=0;exitX=0.024;exitY=0.356;exitDx=0;exitDy=0;exitPerimeter=0;" edge="1" parent="1" source="dZcu3BastDSxpuzZsqTu-39">
          <mxGeometry width="50" height="50" relative="1" as="geometry">
            <mxPoint x="410" y="300" as="sourcePoint" />
            <mxPoint x="320" y="270" as="targetPoint" />
          </mxGeometry>
        </mxCell>
        <mxCell id="dZcu3BastDSxpuzZsqTu-15" value="" style="endArrow=classic;html=1;rounded=0;exitX=1;exitY=0.5;exitDx=0;exitDy=0;" edge="1" parent="1" source="dZcu3BastDSxpuzZsqTu-3">
          <mxGeometry width="50" height="50" relative="1" as="geometry">
            <mxPoint x="470" y="310" as="sourcePoint" />
            <mxPoint x="590" y="110" as="targetPoint" />
          </mxGeometry>
        </mxCell>
        <mxCell id="dZcu3BastDSxpuzZsqTu-16" value="If not playing" style="text;html=1;strokeColor=none;fillColor=none;align=center;verticalAlign=middle;whiteSpace=wrap;rounded=0;" vertex="1" parent="1">
          <mxGeometry x="460" y="80" width="90" height="30" as="geometry" />
        </mxCell>
        <mxCell id="dZcu3BastDSxpuzZsqTu-17" value="FREESTYLE" style="text;html=1;strokeColor=none;fillColor=none;align=center;verticalAlign=middle;whiteSpace=wrap;rounded=0;" vertex="1" parent="1">
          <mxGeometry x="610" y="95" width="60" height="30" as="geometry" />
        </mxCell>
        <mxCell id="dZcu3BastDSxpuzZsqTu-18" value="INITIAL STATE&lt;br&gt;&lt;br&gt;Wait for all online...timeout&lt;br&gt;Wait for all initial_state...timeout" style="text;strokeColor=none;fillColor=none;align=left;verticalAlign=middle;spacingLeft=4;spacingRight=4;overflow=hidden;points=[[0,0.5],[1,0.5]];portConstraint=eastwest;rotatable=0;whiteSpace=wrap;html=1;" vertex="1" parent="1">
          <mxGeometry x="630" y="180" width="230" height="80" as="geometry" />
        </mxCell>
        <mxCell id="dZcu3BastDSxpuzZsqTu-19" value="" style="endArrow=classic;html=1;rounded=0;entryX=0.219;entryY=-0.054;entryDx=0;entryDy=0;entryPerimeter=0;" edge="1" parent="1" target="dZcu3BastDSxpuzZsqTu-18">
          <mxGeometry width="50" height="50" relative="1" as="geometry">
            <mxPoint x="640" y="150" as="sourcePoint" />
            <mxPoint x="640" y="220" as="targetPoint" />
          </mxGeometry>
        </mxCell>
        <mxCell id="dZcu3BastDSxpuzZsqTu-20" value="" style="endArrow=classic;html=1;rounded=0;exitX=0.329;exitY=-0.071;exitDx=0;exitDy=0;exitPerimeter=0;" edge="1" parent="1" source="dZcu3BastDSxpuzZsqTu-18">
          <mxGeometry width="50" height="50" relative="1" as="geometry">
            <mxPoint x="670" y="190" as="sourcePoint" />
            <mxPoint x="780" y="100" as="targetPoint" />
          </mxGeometry>
        </mxCell>
        <mxCell id="dZcu3BastDSxpuzZsqTu-21" value="RECORD&lt;br&gt;&lt;br&gt;Only sucessful handles?" style="text;html=1;strokeColor=none;fillColor=none;align=center;verticalAlign=middle;whiteSpace=wrap;rounded=0;" vertex="1" parent="1">
          <mxGeometry x="760" y="50" width="160" height="40" as="geometry" />
        </mxCell>
        <mxCell id="dZcu3BastDSxpuzZsqTu-22" value="Actor" style="shape=umlActor;verticalLabelPosition=bottom;verticalAlign=top;html=1;outlineConnect=0;" vertex="1" parent="1">
          <mxGeometry x="950" y="410" width="30" height="60" as="geometry" />
        </mxCell>
        <mxCell id="dZcu3BastDSxpuzZsqTu-23" value="FREESTYLE&lt;br&gt;INITIALISING&lt;br&gt;RECORDING&lt;br&gt;PLAYING" style="text;html=1;strokeColor=none;fillColor=none;align=left;verticalAlign=middle;whiteSpace=wrap;rounded=0;" vertex="1" parent="1">
          <mxGeometry x="860" y="390" width="100" height="60" as="geometry" />
        </mxCell>
        <mxCell id="dZcu3BastDSxpuzZsqTu-24" value="Block all UI elements &lt;br&gt;While Initialising and Playing" style="text;html=1;strokeColor=none;fillColor=none;align=center;verticalAlign=middle;whiteSpace=wrap;rounded=0;" vertex="1" parent="1">
          <mxGeometry x="1000" y="370" width="180" height="60" as="geometry" />
        </mxCell>
        <mxCell id="dZcu3BastDSxpuzZsqTu-25" value="" style="endArrow=classic;html=1;rounded=0;" edge="1" parent="1" target="dZcu3BastDSxpuzZsqTu-26">
          <mxGeometry width="50" height="50" relative="1" as="geometry">
            <mxPoint x="940" y="510" as="sourcePoint" />
            <mxPoint x="980" y="590" as="targetPoint" />
          </mxGeometry>
        </mxCell>
        <mxCell id="dZcu3BastDSxpuzZsqTu-26" value="Intialising&lt;br&gt;Block UI Elements" style="text;html=1;strokeColor=none;fillColor=none;align=center;verticalAlign=middle;whiteSpace=wrap;rounded=0;" vertex="1" parent="1">
          <mxGeometry x="960" y="590" width="110" height="50" as="geometry" />
        </mxCell>
        <mxCell id="dZcu3BastDSxpuzZsqTu-27" value="" style="endArrow=classic;html=1;rounded=0;exitX=0.924;exitY=-0.1;exitDx=0;exitDy=0;exitPerimeter=0;" edge="1" parent="1" source="dZcu3BastDSxpuzZsqTu-26">
          <mxGeometry width="50" height="50" relative="1" as="geometry">
            <mxPoint x="1060" y="520" as="sourcePoint" />
            <mxPoint x="1120" y="510" as="targetPoint" />
          </mxGeometry>
        </mxCell>
        <mxCell id="dZcu3BastDSxpuzZsqTu-28" value="1. Click" style="text;html=1;strokeColor=none;fillColor=none;align=center;verticalAlign=middle;whiteSpace=wrap;rounded=0;" vertex="1" parent="1">
          <mxGeometry x="880" y="535" width="60" height="30" as="geometry" />
        </mxCell>
        <mxCell id="dZcu3BastDSxpuzZsqTu-29" value="2. Click" style="text;html=1;strokeColor=none;fillColor=none;align=center;verticalAlign=middle;whiteSpace=wrap;rounded=0;" vertex="1" parent="1">
          <mxGeometry x="1100" y="470" width="60" height="30" as="geometry" />
        </mxCell>
        <mxCell id="dZcu3BastDSxpuzZsqTu-30" value="" style="endArrow=classic;html=1;rounded=0;" edge="1" parent="1">
          <mxGeometry width="50" height="50" relative="1" as="geometry">
            <mxPoint x="760" y="280" as="sourcePoint" />
            <mxPoint x="840" y="390" as="targetPoint" />
          </mxGeometry>
        </mxCell>
        <mxCell id="dZcu3BastDSxpuzZsqTu-31" value="SOCKET PUSH INITIALISING" style="text;html=1;strokeColor=none;fillColor=none;align=center;verticalAlign=middle;whiteSpace=wrap;rounded=0;" vertex="1" parent="1">
          <mxGeometry x="770" y="310" width="150" height="30" as="geometry" />
        </mxCell>
        <mxCell id="dZcu3BastDSxpuzZsqTu-32" value="" style="endArrow=classic;html=1;rounded=0;" edge="1" parent="1">
          <mxGeometry width="50" height="50" relative="1" as="geometry">
            <mxPoint x="870" y="110" as="sourcePoint" />
            <mxPoint x="950" y="370" as="targetPoint" />
          </mxGeometry>
        </mxCell>
        <mxCell id="dZcu3BastDSxpuzZsqTu-33" value="SOCKET PUSH&lt;br&gt;RECORDING" style="text;html=1;strokeColor=none;fillColor=none;align=center;verticalAlign=middle;whiteSpace=wrap;rounded=0;" vertex="1" parent="1">
          <mxGeometry x="880" y="190" width="150" height="30" as="geometry" />
        </mxCell>
        <mxCell id="dZcu3BastDSxpuzZsqTu-34" value="" style="endArrow=classic;html=1;rounded=0;entryX=0.596;entryY=-0.054;entryDx=0;entryDy=0;entryPerimeter=0;" edge="1" parent="1" target="dZcu3BastDSxpuzZsqTu-13">
          <mxGeometry width="50" height="50" relative="1" as="geometry">
            <mxPoint x="620" y="220" as="sourcePoint" />
            <mxPoint x="320" y="250" as="targetPoint" />
          </mxGeometry>
        </mxCell>
        <mxCell id="dZcu3BastDSxpuzZsqTu-35" value="" style="endArrow=classic;html=1;rounded=0;" edge="1" parent="1">
          <mxGeometry width="50" height="50" relative="1" as="geometry">
            <mxPoint x="560" y="250" as="sourcePoint" />
            <mxPoint x="600" y="140" as="targetPoint" />
          </mxGeometry>
        </mxCell>
        <mxCell id="dZcu3BastDSxpuzZsqTu-36" value="" style="endArrow=classic;html=1;rounded=0;exitX=0.999;exitY=0.553;exitDx=0;exitDy=0;exitPerimeter=0;" edge="1" parent="1" source="dZcu3BastDSxpuzZsqTu-38">
          <mxGeometry width="50" height="50" relative="1" as="geometry">
            <mxPoint x="770" y="290" as="sourcePoint" />
            <mxPoint x="850" y="400" as="targetPoint" />
          </mxGeometry>
        </mxCell>
        <mxCell id="dZcu3BastDSxpuzZsqTu-37" value="SOCKET PUSH PLAYING&lt;br&gt;SOCKET PUSH FREESTYLE" style="text;html=1;strokeColor=none;fillColor=none;align=center;verticalAlign=middle;whiteSpace=wrap;rounded=0;" vertex="1" parent="1">
          <mxGeometry x="650" y="400" width="180" height="30" as="geometry" />
        </mxCell>
        <mxCell id="dZcu3BastDSxpuzZsqTu-40" value="" style="endArrow=none;html=1;rounded=0;endFill=0;startArrow=classic;startFill=1;" edge="1" parent="1">
          <mxGeometry width="50" height="50" relative="1" as="geometry">
            <mxPoint x="858" y="113" as="sourcePoint" />
            <mxPoint x="938" y="373" as="targetPoint" />
          </mxGeometry>
        </mxCell>
        <mxCell id="dZcu3BastDSxpuzZsqTu-41" value="HTTP POST&lt;br&gt;Start Recoeding&lt;br&gt;Stop Recording&lt;br&gt;Initialise&lt;br&gt;Play&lt;br&gt;Stop" style="text;html=1;strokeColor=none;fillColor=none;align=center;verticalAlign=middle;whiteSpace=wrap;rounded=0;" vertex="1" parent="1">
          <mxGeometry x="720" y="540" width="150" height="30" as="geometry" />
        </mxCell>
        <mxCell id="dZcu3BastDSxpuzZsqTu-42" value="" style="endArrow=classic;html=1;rounded=0;entryX=0.428;entryY=-0.054;entryDx=0;entryDy=0;entryPerimeter=0;" edge="1" parent="1" target="dZcu3BastDSxpuzZsqTu-18">
          <mxGeometry width="50" height="50" relative="1" as="geometry">
            <mxPoint x="790" y="110" as="sourcePoint" />
            <mxPoint x="680" y="290" as="targetPoint" />
          </mxGeometry>
        </mxCell>
        <mxCell id="dZcu3BastDSxpuzZsqTu-43" value="" style="endArrow=classic;html=1;rounded=0;entryX=0.696;entryY=0.956;entryDx=0;entryDy=0;entryPerimeter=0;exitX=0;exitY=0;exitDx=0;exitDy=0;" edge="1" parent="1" source="dZcu3BastDSxpuzZsqTu-41" target="dZcu3BastDSxpuzZsqTu-39">
          <mxGeometry width="50" height="50" relative="1" as="geometry">
            <mxPoint x="600" y="500" as="sourcePoint" />
            <mxPoint x="650" y="450" as="targetPoint" />
          </mxGeometry>
        </mxCell>
        <mxCell id="dZcu3BastDSxpuzZsqTu-44" value="Delete Jobs" style="text;html=1;strokeColor=none;fillColor=none;align=center;verticalAlign=middle;whiteSpace=wrap;rounded=0;" vertex="1" parent="1">
          <mxGeometry x="660" y="460" width="100" height="30" as="geometry" />
        </mxCell>
        <mxCell id="dZcu3BastDSxpuzZsqTu-45" value="" style="endArrow=classic;html=1;rounded=0;exitX=0;exitY=0.25;exitDx=0;exitDy=0;" edge="1" parent="1" source="dZcu3BastDSxpuzZsqTu-41" target="dZcu3BastDSxpuzZsqTu-38">
          <mxGeometry width="50" height="50" relative="1" as="geometry">
            <mxPoint x="710" y="550" as="sourcePoint" />
            <mxPoint x="570" y="350" as="targetPoint" />
          </mxGeometry>
        </mxCell>
      </root>
    </mxGraphModel>
  </diagram>
</mxfile>
